{
    "anims": [
        {
            "key": "Idle",
            "type": "frame",
            "frames": [
                {
                    "key": "ybot",
                    "frame": "Idle/00.PNG",
                    "duration": 0,
                    "visible": false
                },
				{
                    "key": "ybot",
                    "frame": "Idle/01.PNG",
                    "duration": 0,
                    "visible": false
                },
				{
                    "key": "ybot",
                    "frame": "Idle/02.PNG",
                    "duration": 0,
                    "visible": false
                },
				{
                    "key": "ybot",
                    "frame": "Idle/03.PNG",
                    "duration": 0,
                    "visible": false
                }
            ],
            "frameRate": 8,
            "duration": 1.5,
            "skipMissedFrames": false,
            "delay": 0,
            "repeat": -1,
            "repeatDelay": 0,
            "yoyo": true,
            "showOnStart": false,
            "hideOnComplete": true
        },
        {
            "key": "Walking",
            "type": "frame",
            "frames": [
                {
                    "key": "ybot",
                    "frame": "Walking/00.PNG",
                    "duration": 0,
                    "visible": false
                },
                {
                    "key": "ybot",
                    "frame": "Walking/01.PNG",
                    "duration": 0,
                    "visible": false
                },
                {
                    "key": "ybot",
                    "frame": "Walking/02.PNG",
                    "duration": 0,
                    "visible": false
                },
                {
                    "key": "ybot",
                    "frame": "Walking/03.PNG",
                    "duration": 0,
                    "visible": false
                }
            ],
            "frameRate": 8,
            "duration": 1.6,
            "skipMissedFrames": true,
            "delay": 0,
            "repeat": -1,
            "repeatDelay": 0,
            "yoyo": true,
            "showOnStart": false,
            "hideOnComplete": false
        }
    ],
    "globalTimeScale": 1
}